\relax 
\citation{Dias:01}
\@writefile{toc}{\contentsline {section}{\numberline {1}Introdu\c c\~ao}{1}}
\@writefile{toc}{\contentsline {section}{\numberline {2}Aplica\c c\~ao}{2}}
\newlabel{sec:app}{{2}{2}}
\@writefile{lof}{\contentsline {figure}{\numberline {1}{\ignorespaces Exemplo de algumas telas da aplica\c c\~ao}}{2}}
\newlabel{fig:telasApp}{{1}{2}}
\@writefile{toc}{\contentsline {section}{\numberline {3}Contagem}{2}}
\@writefile{toc}{\contentsline {subsection}{\numberline {3.1}Tipo de Contagem}{2}}
\@writefile{toc}{\contentsline {subsection}{\numberline {3.2}Escopo da Contagem e Fronteira da Aplica\c c\~ao}{2}}
\@writefile{toc}{\contentsline {subsection}{\numberline {3.3}Fun\c c\~oes do Tipo Dado}{3}}
\@writefile{lof}{\contentsline {figure}{\numberline {2}{\ignorespaces Tabela de Complexidade de ALIs e AIEs}}{3}}
\newlabel{fig:ComplexAli}{{2}{3}}
\@writefile{lof}{\contentsline {figure}{\numberline {3}{\ignorespaces Tabela de Contribui\c c\~ao de ALIs e AIEs}}{3}}
\newlabel{fig:ContAli}{{3}{3}}
\citation{vazquez:02}
\@writefile{toc}{\contentsline {subsection}{\numberline {3.4}Fun\c c\~oes do Tipo Transa\c c\~ao}{4}}
\@writefile{lof}{\contentsline {figure}{\numberline {4}{\ignorespaces Tabela de Complexidade dos tipos de transa\c c\~oes}}{4}}
\newlabel{fig:CompEE}{{4}{4}}
\@writefile{lof}{\contentsline {figure}{\numberline {5}{\ignorespaces Tabela de Contribui\c c\~ao Fun\c c\~oes do tipo Transa\c c\~ao}}{4}}
\newlabel{fig:ContEE}{{5}{4}}
\@writefile{toc}{\contentsline {subsection}{\numberline {3.5}Pontos de Fun\c c\~ao N\~ao Ajustados}{4}}
\bibstyle{sbc}
\bibdata{sbc-template}
\bibcite{Dias:01}{Dias 2003}
\bibcite{vazquez:02}{VAZQUEZ 2010}
\@writefile{lot}{\contentsline {table}{\numberline {1}{\ignorespaces Contribui\c c\~ao das Fun\c c\~oes do tipo transa\c c\~ao.}}{5}}
\newlabel{tab:Contribuicao}{{1}{5}}
\@writefile{toc}{\contentsline {section}{\numberline {4}Conclus\~oes}{5}}
