\relax 
\@writefile{toc}{\contentsline {section}{\numberline {1}Introdu\c c\~ao}{1}}
\@writefile{toc}{\contentsline {section}{\numberline {2}First Page}{1}}
\newlabel{sec:firstpage}{{2}{1}}
\@writefile{toc}{\contentsline {section}{\numberline {3}CD-ROMs and Printed Proceedings}{1}}
\@writefile{toc}{\contentsline {section}{\numberline {4}Sections and Paragraphs}{2}}
\@writefile{toc}{\contentsline {subsection}{\numberline {4.1}Subsections}{2}}
\@writefile{toc}{\contentsline {section}{\numberline {5}Figures and Captions}{2}}
\newlabel{sec:figs}{{5}{2}}
\@writefile{lof}{\contentsline {figure}{\numberline {1}{\ignorespaces A typical figure}}{2}}
\newlabel{fig:exampleFig1}{{1}{2}}
\@writefile{lof}{\contentsline {figure}{\numberline {2}{\ignorespaces This figure is an example of a figure caption taking more than one line and justified considering margins mentioned in Section\nobreakspace  {}5\hbox {}.}}{2}}
\newlabel{fig:exampleFig2}{{2}{2}}
\citation{knuth:84}
\citation{boulic:91}
\citation{smith:99}
\bibstyle{sbc}
\bibdata{sbc-template}
\bibcite{knuth:84}{Knuth 1984}
\bibcite{smith:99}{Smith and Jones 1999}
\@writefile{lot}{\contentsline {table}{\numberline {1}{\ignorespaces Variables to be considered on the evaluation of interaction techniques}}{3}}
\newlabel{tab:exTable1}{{1}{3}}
\@writefile{toc}{\contentsline {section}{\numberline {6}Images}{3}}
\@writefile{toc}{\contentsline {section}{\numberline {7}References}{3}}
